,feature,corr,beta,count
29,"{'lag': 0, 'name': 'sales_ma_3', 'offset': 0}",0.777740500234,0.863068794926,107474621
25,"{'lag': 0, 'name': 'sales_ma_14', 'offset': 0}",0.75210662492,0.753664207094,125010836
26,"{'lag': 0, 'name': 'sales_ma_28', 'offset': 0}",0.746968770468,0.759084799784,124726984
28,"{'lag': 0, 'name': 'sales_ma_7', 'offset': 0}",0.746153078558,0.732547578388,125172764
34,"{'lag': 1, 'name': 'sales_week_season_ma_p2', 'offset': 0}",0.742247162981,0.745802732316,103433031
30,"{'lag': 0, 'name': 'sales_ma_56', 'offset': 0}",0.737099638555,0.756322679063,124153931
18,"{'lag': 1, 'name': 'y_0', 'offset': 0}",0.725626582476,0.725667985148,103433031
27,"{'lag': 0, 'name': 'sales_ma_112', 'offset': 0}",0.714591907124,0.73731932352,122991006
17,"{'lag': 0, 'name': 'y_0', 'offset': 0}",0.696338505203,0.696008374956,103019163
19,"{'lag': 2, 'name': 'y_0', 'offset': 0}",0.692572490568,0.692853926836,102419519
35,"{'lag': 1, 'name': 'sales_week_season_ma_p3', 'offset': 0}",0.692260602978,0.621449862565,125250931
24,"{'lag': 0, 'name': 'sales_ma_224', 'offset': 0}",0.684036641949,0.711251530989,120602554
20,"{'lag': 3, 'name': 'y_0', 'offset': 0}",0.667349693167,0.667678664189,101860928
32,"{'lag': 1, 'name': 'sales_week_season_ma_p4', 'offset': 0}",0.666883036532,0.587810587962,125250931
23,"{'lag': 6, 'name': 'y_0', 'offset': 0}",0.663835975933,0.663681440728,101116146
21,"{'lag': 4, 'name': 'y_0', 'offset': 0}",0.658075375312,0.658140015056,101493169
22,"{'lag': 5, 'name': 'y_0', 'offset': 0}",0.65694962452,0.657026333817,101245120
31,"{'lag': 1, 'name': 'sales_week_season_ma_p7', 'offset': 0}",0.626308994251,0.532321035881,125250931
33,"{'lag': 1, 'name': 'sales_week_season_ma_p13', 'offset': 0}",0.558861311692,0.458931949575,125250931
6,"{'lag': 0, 'name': 'item_mean_0', 'offset': 0}",0.444286372035,0.65192331965,125290231
7,"{'lag': 0, 'name': 'class_0', 'offset': 0}",0.230973176281,0.704375610549,125290231
11,"{'lag': 0, 'name': 'class_mv36', 'offset': 0}",0.219191894479,0.716677975888,124569480
0,"{'lag': 0, 'name': 'store_mean_0', 'offset': 0}",0.201935081759,0.557271539614,125290231
3,"{'lag': 0, 'name': 'cluster_mv36', 'offset': 0}",0.151624237547,0.482656613811,124569480
4,"{'lag': 0, 'name': 'cluster_0', 'offset': 0}",0.151288530083,0.449112568004,125290231
1,"{'lag': 0, 'name': 'family_0', 'offset': 0}",0.148384446586,0.576689971674,125290231
13,"{'lag': 0, 'name': 'family_mv36', 'offset': 0}",0.137159937892,0.579868078298,124569480
8,"{'lag': 0, 'name': 'type_0', 'offset': 0}",0.125647574769,0.417430141357,125290231
9,"{'lag': 0, 'name': 'type_mv36', 'offset': 0}",0.124850605306,0.448487827473,124569480
2,"{'lag': 0, 'name': 'city_0', 'offset': 0}",0.105493897284,0.364199832725,125290231
5,"{'lag': 0, 'name': 'city_mv36', 'offset': 0}",0.103696086435,0.388432943714,124569480
12,"{'lag': 0, 'name': 'state_0', 'offset': 0}",0.103413378579,0.360184586832,125290231
10,"{'lag': 0, 'name': 'state_mv36', 'offset': 0}",0.101384767769,0.382780119488,124569480
15,"{'lag': 0, 'name': 'onpromotion_0', 'offset': 6}",0.032770594177,0.0646325003653,125290231
14,"{'lag': 0, 'name': 'holiday_0', 'offset': 6}",0.017825326406,0.0570823469762,125290231
16,"{'lag': 0, 'name': 'wage_0', 'offset': 6}",-0.0271792077024,-0.0858831444288,125290231
