,feature,corr,beta,count
29,"{'lag': 0, 'name': 'sales_ma_3', 'offset': 0}",0.76702354776,0.851145801961,105525562
34,"{'lag': 1, 'name': 'sales_week_season_ma_p2', 'offset': 0}",0.738477340802,0.742339926096,101357669
26,"{'lag': 0, 'name': 'sales_ma_28', 'offset': 0}",0.726601278294,0.73179130954,124444169
25,"{'lag': 0, 'name': 'sales_ma_14', 'offset': 0}",0.726297402627,0.720294418323,124726984
30,"{'lag': 0, 'name': 'sales_ma_56', 'offset': 0}",0.722970844687,0.736495644037,123864722
28,"{'lag': 0, 'name': 'sales_ma_7', 'offset': 0}",0.719658198341,0.698919836656,124891758
18,"{'lag': 1, 'name': 'y_0', 'offset': 0}",0.71594512248,0.715947945749,101357669
27,"{'lag': 0, 'name': 'sales_ma_112', 'offset': 0}",0.703589347514,0.722244428264,122694569
17,"{'lag': 0, 'name': 'y_0', 'offset': 0}",0.685819486685,0.685555455504,101147465
19,"{'lag': 2, 'name': 'y_0', 'offset': 0}",0.684124000073,0.684403598538,100687185
24,"{'lag': 0, 'name': 'sales_ma_224', 'offset': 0}",0.676448679727,0.700705139216,120294695
35,"{'lag': 1, 'name': 'sales_week_season_ma_p3', 'offset': 0}",0.674680586998,0.60224319077,124971513
20,"{'lag': 3, 'name': 'y_0', 'offset': 0}",0.659983052469,0.660160078713,100195388
32,"{'lag': 1, 'name': 'sales_week_season_ma_p4', 'offset': 0}",0.655789639555,0.575373826537,124971513
23,"{'lag': 6, 'name': 'y_0', 'offset': 0}",0.655299801095,0.655112070951,99523101
21,"{'lag': 4, 'name': 'y_0', 'offset': 0}",0.650476335779,0.650445229768,99860385
22,"{'lag': 5, 'name': 'y_0', 'offset': 0}",0.648875703429,0.648889398163,99640530
31,"{'lag': 1, 'name': 'sales_week_season_ma_p7', 'offset': 0}",0.618618563822,0.524178980778,124971513
33,"{'lag': 1, 'name': 'sales_week_season_ma_p13', 'offset': 0}",0.553923952039,0.45413774779,124971513
6,"{'lag': 0, 'name': 'item_mean_0', 'offset': 0}",0.427972769489,0.623101625579,125010836
7,"{'lag': 0, 'name': 'class_0', 'offset': 0}",0.221332622033,0.667141842222,125010836
11,"{'lag': 0, 'name': 'class_mv36', 'offset': 0}",0.212471856087,0.688156156248,124285076
0,"{'lag': 0, 'name': 'store_mean_0', 'offset': 0}",0.2006370653,0.55264531329,125010836
3,"{'lag': 0, 'name': 'cluster_mv36', 'offset': 0}",0.150732073853,0.480237722342,124285076
4,"{'lag': 0, 'name': 'cluster_0', 'offset': 0}",0.150710724674,0.447611189734,125010836
1,"{'lag': 0, 'name': 'family_0', 'offset': 0}",0.142199141024,0.547127182205,125010836
13,"{'lag': 0, 'name': 'family_mv36', 'offset': 0}",0.132149793704,0.554461488957,124285076
8,"{'lag': 0, 'name': 'type_0', 'offset': 0}",0.125405382685,0.417045321764,125010836
9,"{'lag': 0, 'name': 'type_mv36', 'offset': 0}",0.123964785365,0.446027790776,124285076
2,"{'lag': 0, 'name': 'city_0', 'offset': 0}",0.105194471703,0.362642911334,125010836
12,"{'lag': 0, 'name': 'state_0', 'offset': 0}",0.10323722896,0.359088159566,125010836
5,"{'lag': 0, 'name': 'city_mv36', 'offset': 0}",0.102945444944,0.385237959673,124285076
10,"{'lag': 0, 'name': 'state_mv36', 'offset': 0}",0.100680217733,0.379766497414,124285076
15,"{'lag': 0, 'name': 'onpromotion_0', 'offset': 13}",0.0329944596775,0.0652672219306,125010836
14,"{'lag': 0, 'name': 'holiday_0', 'offset': 13}",0.0177481169497,0.0568745002632,125010836
16,"{'lag': 0, 'name': 'wage_0', 'offset': 13}",-0.0273109900761,-0.0862721777403,125010836
